Numero;Qualification;NombreHeure;Planning(codeChaine,Nbheure)
1;QUALIFIE;35;
2;NON_QUALIFIE;25;
3;NON_QUALIFIE;20;
4;QUALIFIE;30;
5;QUALIFIE;30;
6;NON_QUALIFIE;20;
7;NON_QUALIFIE;30;
8;QUALIFIE;35;
9;NON_QUALIFIE;15;
10;NON_QUALIFIE;20;
11;QUALIFIE;30;
12;QUALIFIE;35;
13;NON_QUALIFIE;24;
14;QUALIFIE;30;
15;NON_QUALIFIE;15;
16;QUALIFIE;35;
17;NON_QUALIFIE;25;
18;QUALIFIE;35;
19;NON_QUALIFIE;25;
20;NON_QUALIFIE;20;
21;QUALIFIE;30;
22;QUALIFIE;30;
23;QUALIFIE;30;
24;NON_QUALIFIE;25;
25;NON_QUALIFIE;25;
26;QUALIFIE;30;
27;QUALIFIE;30;
28;NON_QUALIFIE;20;
29;QUALIFIE;35;
30;QUALIFIE;30;
